ALU/simulation/qsim/ALU.msim.vcd
$comment
	File created using the following command:
		vcd file ALU.msim.vcd -direction
$end
$date
	Fri May 17 07:28:33 2024
$end
$version
	ModelSim Version 10.5b
$end
$timescale
	1ps
$end

$scope module alu_vhd_vec_tst $end
$var wire 1 ! A [7] $end
$var wire 1 " A [6] $end
$var wire 1 # A [5] $end
$var wire 1 $ A [4] $end
$var wire 1 % A [3] $end
$var wire 1 & A [2] $end
$var wire 1 ' A [1] $end
$var wire 1 ( A [0] $end
$var wire 1 ) B [7] $end
$var wire 1 * B [6] $end
$var wire 1 + B [5] $end
$var wire 1 , B [4] $end
$var wire 1 - B [3] $end
$var wire 1 . B [2] $end
$var wire 1 / B [1] $end
$var wire 1 0 B [0] $end
$var wire 1 1 Flags [3] $end
$var wire 1 2 Flags [2] $end
$var wire 1 3 Flags [1] $end
$var wire 1 4 Flags [0] $end
$var wire 1 5 Out_ALU [7] $end
$var wire 1 6 Out_ALU [6] $end
$var wire 1 7 Out_ALU [5] $end
$var wire 1 8 Out_ALU [4] $end
$var wire 1 9 Out_ALU [3] $end
$var wire 1 : Out_ALU [2] $end
$var wire 1 ; Out_ALU [1] $end
$var wire 1 < Out_ALU [0] $end
$var wire 1 = Sel [3] $end
$var wire 1 > Sel [2] $end
$var wire 1 ? Sel [1] $end
$var wire 1 @ Sel [0] $end

$scope module i1 $end
$var wire 1 A gnd $end
$var wire 1 B vcc $end
$var wire 1 C unknown $end
$var wire 1 D devoe $end
$var wire 1 E devclrn $end
$var wire 1 F devpor $end
$var wire 1 G ww_devoe $end
$var wire 1 H ww_devclrn $end
$var wire 1 I ww_devpor $end
$var wire 1 J ww_A [7] $end
$var wire 1 K ww_A [6] $end
$var wire 1 L ww_A [5] $end
$var wire 1 M ww_A [4] $end
$var wire 1 N ww_A [3] $end
$var wire 1 O ww_A [2] $end
$var wire 1 P ww_A [1] $end
$var wire 1 Q ww_A [0] $end
$var wire 1 R ww_B [7] $end
$var wire 1 S ww_B [6] $end
$var wire 1 T ww_B [5] $end
$var wire 1 U ww_B [4] $end
$var wire 1 V ww_B [3] $end
$var wire 1 W ww_B [2] $end
$var wire 1 X ww_B [1] $end
$var wire 1 Y ww_B [0] $end
$var wire 1 Z ww_Sel [3] $end
$var wire 1 [ ww_Sel [2] $end
$var wire 1 \ ww_Sel [1] $end
$var wire 1 ] ww_Sel [0] $end
$var wire 1 ^ ww_Out_ALU [7] $end
$var wire 1 _ ww_Out_ALU [6] $end
$var wire 1 ` ww_Out_ALU [5] $end
$var wire 1 a ww_Out_ALU [4] $end
$var wire 1 b ww_Out_ALU [3] $end
$var wire 1 c ww_Out_ALU [2] $end
$var wire 1 d ww_Out_ALU [1] $end
$var wire 1 e ww_Out_ALU [0] $end
$var wire 1 f ww_Flags [3] $end
$var wire 1 g ww_Flags [2] $end
$var wire 1 h ww_Flags [1] $end
$var wire 1 i ww_Flags [0] $end
$var wire 1 j \Add0~49\ $end
$var wire 1 k \Add0~48_combout\ $end
$var wire 1 l \Add0~47_combout\ $end
$var wire 1 m \Add0~51_cout0\ $end
$var wire 1 n \Add0~51COUT1_71\ $end
$var wire 1 o \Add0~2_combout\ $end
$var wire 1 p \Mux8~4_combout\ $end
$var wire 1 q \Mux8~8_combout\ $end
$var wire 1 r \Mux8~9_combout\ $end
$var wire 1 s \Mux8~5_combout\ $end
$var wire 1 t \Mux8~6_combout\ $end
$var wire 1 u \Mux8~7_combout\ $end
$var wire 1 v \Add0~54_combout\ $end
$var wire 1 w \Add0~55_combout\ $end
$var wire 1 x \Add0~4\ $end
$var wire 1 y \Add0~4COUT1_72\ $end
$var wire 1 z \Add0~7_combout\ $end
$var wire 1 { \Mux7~6_combout\ $end
$var wire 1 | \Mux7~7_combout\ $end
$var wire 1 } \Mux7~4_combout\ $end
$var wire 1 ~ \Mux7~5_combout\ $end
$var wire 1 !! \Mux6~6_combout\ $end
$var wire 1 "! \Mux6~7_combout\ $end
$var wire 1 #! \Add0~57_combout\ $end
$var wire 1 $! \Add0~56_combout\ $end
$var wire 1 %! \Add0~9\ $end
$var wire 1 &! \Add0~9COUT1_73\ $end
$var wire 1 '! \Add0~12_combout\ $end
$var wire 1 (! \Mux6~4_combout\ $end
$var wire 1 )! \Mux6~5_combout\ $end
$var wire 1 *! \Mux5~6_combout\ $end
$var wire 1 +! \Mux5~7_combout\ $end
$var wire 1 ,! \Add0~58_combout\ $end
$var wire 1 -! \Add0~59_combout\ $end
$var wire 1 .! \Add0~14\ $end
$var wire 1 /! \Add0~14COUT1_74\ $end
$var wire 1 0! \Add0~17_combout\ $end
$var wire 1 1! \Mux5~4_combout\ $end
$var wire 1 2! \Mux5~5_combout\ $end
$var wire 1 3! \Add0~61_combout\ $end
$var wire 1 4! \Add0~60_combout\ $end
$var wire 1 5! \Add0~19\ $end
$var wire 1 6! \Add0~22_combout\ $end
$var wire 1 7! \Mux4~6_combout\ $end
$var wire 1 8! \Mux4~7_combout\ $end
$var wire 1 9! \Mux4~4_combout\ $end
$var wire 1 :! \Mux4~5_combout\ $end
$var wire 1 ;! \Add0~63_combout\ $end
$var wire 1 <! \Add0~62_combout\ $end
$var wire 1 =! \Add0~24\ $end
$var wire 1 >! \Add0~24COUT1_75\ $end
$var wire 1 ?! \Add0~27_combout\ $end
$var wire 1 @! \Mux3~6_combout\ $end
$var wire 1 A! \Mux3~7_combout\ $end
$var wire 1 B! \Mux3~4_combout\ $end
$var wire 1 C! \Mux3~5_combout\ $end
$var wire 1 D! \Mux2~6_combout\ $end
$var wire 1 E! \Mux2~7_combout\ $end
$var wire 1 F! \Add0~65_combout\ $end
$var wire 1 G! \Add0~64_combout\ $end
$var wire 1 H! \Add0~29\ $end
$var wire 1 I! \Add0~29COUT1_76\ $end
$var wire 1 J! \Add0~32_combout\ $end
$var wire 1 K! \Mux2~4_combout\ $end
$var wire 1 L! \Mux2~5_combout\ $end
$var wire 1 M! \Add0~69_combout\ $end
$var wire 1 N! \Add0~68_combout\ $end
$var wire 1 O! \Add0~66_combout\ $end
$var wire 1 P! \Add0~67_combout\ $end
$var wire 1 Q! \Add0~34\ $end
$var wire 1 R! \Add0~34COUT1_77\ $end
$var wire 1 S! \Add0~37_combout\ $end
$var wire 1 T! \Mux1~1_combout\ $end
$var wire 1 U! \Mux1~2_combout\ $end
$var wire 1 V! \Mux1~4_combout\ $end
$var wire 1 W! \Mux1~5_combout\ $end
$var wire 1 X! \Mux1~0_combout\ $end
$var wire 1 Y! \Mux1~3_combout\ $end
$var wire 1 Z! \Add0~39\ $end
$var wire 1 [! \Add0~39COUT1_78\ $end
$var wire 1 \! \Add0~42_combout\ $end
$var wire 1 ]! \Mux0~0_combout\ $end
$var wire 1 ^! \Mux0~1_combout\ $end
$var wire 1 _! \Sel~combout\ [3] $end
$var wire 1 `! \Sel~combout\ [2] $end
$var wire 1 a! \Sel~combout\ [1] $end
$var wire 1 b! \Sel~combout\ [0] $end
$var wire 1 c! \A~combout\ [7] $end
$var wire 1 d! \A~combout\ [6] $end
$var wire 1 e! \A~combout\ [5] $end
$var wire 1 f! \A~combout\ [4] $end
$var wire 1 g! \A~combout\ [3] $end
$var wire 1 h! \A~combout\ [2] $end
$var wire 1 i! \A~combout\ [1] $end
$var wire 1 j! \A~combout\ [0] $end
$var wire 1 k! \B~combout\ [7] $end
$var wire 1 l! \B~combout\ [6] $end
$var wire 1 m! \B~combout\ [5] $end
$var wire 1 n! \B~combout\ [4] $end
$var wire 1 o! \B~combout\ [3] $end
$var wire 1 p! \B~combout\ [2] $end
$var wire 1 q! \B~combout\ [1] $end
$var wire 1 r! \B~combout\ [0] $end
$upscope $end
$upscope $end
$enddefinitions $end
#0
$dumpvars
0A
1B
xC
1D
1E
1F
1G
1H
1I
1j
1k
0l
0m
0n
1o
1p
1q
1r
1s
0t
1u
0v
0w
1x
1y
0z
0{
1|
0}
0~
1!!
0"!
1#!
0$!
0%!
0&!
1'!
1(!
1)!
1*!
0+!
0,!
1-!
1.!
1/!
10!
11!
12!
13!
04!
05!
16!
17!
08!
19!
1:!
1;!
0<!
1=!
0>!
1?!
1@!
0A!
1B!
1C!
0D!
1E!
0F!
0G!
0H!
1I!
0J!
0K!
0L!
0M!
0N!
0O!
0P!
1Q!
1R!
0S!
0T!
1U!
0V!
0W!
0X!
0Y!
0Z!
0[!
0\!
0]!
0^!
0!
0"
1#
1$
1%
1&
0'
0(
0)
0*
0+
1,
0-
1.
0/
10
0=
1>
0?
1@
05
06
17
18
19
1:
0;
1<
01
02
03
14
0J
0K
1L
1M
1N
1O
0P
0Q
0R
0S
0T
1U
0V
1W
0X
1Y
0Z
1[
0\
1]
0^
0_
1`
1a
1b
1c
0d
1e
0f
0g
0h
1i
0_!
1`!
0a!
1b!
0c!
0d!
1e!
1f!
1g!
1h!
0i!
0j!
0k!
0l!
0m!
1n!
0o!
1p!
0q!
1r!
$end
#50000
1'
1)
1*
1+
0,
0.
1/
00
1P
0Y
1X
0W
0U
1T
1S
1R
1k!
1l!
1m!
0n!
0p!
1q!
0r!
1i!
1w
0|
0q
1{
1D!
1M!
1N!
1S!
1\!
0N!
1z
1}
0S!
0\!
1^!
1T!
1V!
1W!
1h
0^!
0T!
0V!
1~
13
1d
0W!
0h
1X!
1;
03
1Y!
0X!
0Y!
1^
1f
15
11
0^
0f
05
01
#70000
0>
0@
0]
0[
0`!
0b!
0!!
0*!
07!
0D!
0U!
0k
1v
1<!
1G!
0M!
1N!
1J!
0R!
0?!
1H!
0z
1%!
1&!
0o
0s
0'!
0.!
0/!
0}
0J!
0Q!
0B!
1K!
1S!
1[!
1\!
1^!
1T!
1X!
1L!
0C!
0S!
1Z!
0K!
0~
00!
15!
0(!
0u
0e
0)!
06!
1?!
01!
0d
0L!
0\!
0T!
0X!
0`
1_
1Y!
1U!
1h
0<
0;
07
16
13
1^
1f
0Y!
0U!
0^!
0_
02!
1B!
09!
0c
0:
06
15
11
0:!
1C!
0b
0h
0f
0^
09
05
03
01
1`
0a
08
17
#100000
0'
0*
0+
1,
0/
10
1"
0&
1-
0P
0O
1K
1Y
0X
1V
1U
0T
0S
0l!
0m!
1n!
1o!
0q!
1r!
1d!
0h!
0i!
0w
1|
1"!
0#!
0E!
1F!
1k
0v
0{
1*!
1,!
14!
17!
0<!
0@!
0G!
0?!
0H!
16!
0=!
10!
1o
1'!
1.!
1/!
0%!
0&!
0'!
00!
1(!
1s
11!
1H!
19!
1Q!
0B!
0C!
0Z!
1:!
0Q!
12!
1u
1)!
01!
0(!
0)!
02!
1c
1e
1b
1Z!
1a
0`
1<
1:
19
18
07
0b
0c
0:
09
#150000
1'
0,
0"
1&
0-
0)
0#
0%
1P
1O
0N
0L
0K
0V
0U
0R
0k!
0n!
0o!
0d!
0e!
0g!
1h!
1i!
1w
0|
0"!
1#!
1+!
0-!
0;!
1A!
1E!
0F!
0*!
0,!
04!
07!
0N!
1S!
0Z!
0[!
1\!
06!
1=!
1J!
1Q!
1R!
1?!
0H!
0I!
05!
1'!
1z
1}
1(!
16!
0J!
1B!
0S!
1K!
0?!
09!
1^!
0\!
1T!
1X!
1Y!
1U!
0^!
1h
0:!
0B!
1L!
0T!
0X!
1C!
0K!
19!
1)!
1~
13
1d
1c
1:!
0L!
1`
0U!
1_
0C!
0a
0h
0Y!
1^
1f
1;
1:
08
17
16
15
03
11
0^
0f
0`
0_
1a
18
07
06
05
01
#200000
0'
1,
0&
1-
1#
1/
00
1.
1!
1(
1Q
0P
0O
1L
1J
0Y
1X
1W
1V
1U
1n!
1o!
1p!
1q!
0r!
1c!
1e!
0h!
0i!
1j!
1l
0r
0w
1|
1"!
0#!
1;!
0A!
1P!
1V!
0k
1v
1$!
1,!
14!
17!
06!
0=!
10!
1S!
1\!
1?!
1I!
1B!
1^!
1T!
1X!
11!
0?!
1H!
09!
0:!
1J!
0B!
12!
1Y!
1U!
1h
1C!
13
1`
1^
1f
1b
0C!
1K!
0a
19
08
17
15
11
1L!
0`
07
1_
16
#250000
1'
0#
0(
1"
1%
1*
1+
0Q
1P
1N
0L
1K
1T
1S
1l!
1m!
1d!
0e!
1g!
1i!
0j!
0l
1r
1w
1{
0|
1*!
0+!
1-!
0;!
1A!
0E!
1F!
1<!
1D!
1G!
0Q!
0R!
00!
15!
0z
1%!
1&!
0o
0s
0'!
0.!
0/!
0}
16!
01!
0S!
1Z!
1[!
0\!
0T!
0X!
02!
19!
0~
10!
0(!
0u
0e
0)!
11!
0d
1:!
0b
0Y!
0U!
0^!
0<
0;
09
0h
0^
0f
1a
12!
0c
03
01
0:
18
05
1b
19
#300000
0'
1(
0"
0%
1&
0-
0/
0.
1Q
0P
1O
0N
0K
0X
0W
0V
0o!
0p!
0q!
0d!
0g!
1h!
0i!
1j!
1l
0r
0w
1|
0"!
1#!
1+!
0-!
0D!
1E!
0F!
0v
0{
0$!
0*!
0,!
0J!
05!
0%!
0&!
1o
1s
1'!
1.!
1/!
06!
0K!
0L!
09!
00!
1(!
1u
1e
1)!
01!
0:!
0_
1<
06
0a
02!
1c
1:
08
0b
09
#350000
0(
1"
1%
0&
1/
1.
0*
0+
0!
0$
0Q
0O
1N
0M
1K
0J
1X
1W
0T
0S
0l!
0m!
1p!
1q!
0c!
1d!
0f!
1g!
0h!
0j!
0l
1r
1"!
0#!
0+!
1-!
03!
07!
18!
0E!
1F!
0P!
0V!
1v
1$!
0<!
0G!
1?!
0H!
0I!
1z
1S!
0Z!
0[!
1\!
16!
1=!
10!
0o
0s
11!
0?!
19!
1^!
0\!
1T!
1X!
1}
1J!
1Q!
1R!
1B!
1C!
0S!
1K!
1~
1Y!
1U!
0^!
1h
1:!
0B!
12!
0u
13
0e
1b
0C!
1a
0h
1^
1f
1d
1L!
0T!
0X!
1`
0<
1;
19
18
17
15
03
11
0Y!
0U!
1_
0`
07
16
0^
0f
05
01
#400000
1(
0"
0%
1&
1*
1+
1!
1'
1#
10
1)
1Q
1P
1O
0N
1L
0K
1J
1Y
1T
1S
1R
1k!
1l!
1m!
1r!
1c!
0d!
1e!
0g!
1h!
1i!
1j!
1l
0r
1w
1{
0|
1!!
0"!
1#!
1+!
0-!
1;!
0A!
1E!
0F!
1P!
1V!
1k
1q
1<!
1@!
1G!
1N!
1W!
1Z!
1[!
1H!
1I!
00!
0'!
0.!
0/!
0z
1%!
1&!
0x
0y
1z
1'!
0}
10!
0(!
01!
0J!
0Q!
0R!
1\!
1^!
1S!
0K!
02!
0)!
11!
0~
1(!
1}
1~
1)!
0d
12!
0c
0b
0L!
1T!
1X!
1h
0;
0:
09
13
1Y!
1U!
0_
1b
1c
1d
1;
1:
19
06
1^
1f
15
11
#450000
0(
0&
0+
0'
00
1$
0Q
0P
0O
1M
0Y
0T
0m!
0r!
1f!
0h!
0i!
0j!
0l
1r
0w
0{
1|
0!!
1"!
0#!
13!
17!
08!
0k
0q
0<!
0@!
1?!
0H!
06!
0=!
0'!
0z
1x
1y
1z
0%!
0&!
0}
0(!
0?!
1H!
09!
1J!
1Q!
1B!
1C!
0S!
1K!
0:!
0J!
0Q!
0B!
0)!
0~
1'!
1.!
1/!
1}
1~
00!
1(!
0d
0c
0C!
1S!
0K!
0a
1L!
0T!
0X!
1`
0;
0:
08
17
0Y!
0U!
1_
0L!
1T!
1X!
0`
1)!
01!
1d
1;
07
16
02!
1c
1U!
0_
1Y!
0^
0f
1:
06
05
01
1^
1f
0b
09
15
11
#500000
1(
1&
1'
10
0$
1%
0!
0#
0/
0.
1-
1Q
1P
1O
1N
0M
0L
0J
1Y
0X
0W
1V
1o!
0p!
0q!
1r!
0c!
0e!
0f!
1g!
1h!
1i!
1j!
1l
0r
1w
0|
0"!
1#!
0+!
1-!
03!
07!
18!
0;!
1A!
0P!
0V!
1k
1q
0v
0$!
1*!
1,!
0W!
0S!
0\!
1?!
0H!
0I!
16!
1=!
15!
0x
0y
0z
1%!
1&!
06!
19!
1J!
1Q!
1R!
1B!
0^!
0T!
0X!
0Y!
0U!
0h
1C!
1S!
0Z!
0[!
1K!
1:!
09!
0'!
0.!
0/!
0}
03
0~
10!
0(!
0:!
1a
1L!
1\!
1T!
1X!
1`
0^
0f
18
17
05
01
1Y!
1U!
1^!
1_
0a
0)!
11!
0d
0;
08
16
12!
0c
1h
1^
1f
0:
15
13
11
1b
19
#550000
0(
0'
0%
0-
1"
0)
0Q
0P
0N
1K
0V
0R
0k!
0o!
1d!
0g!
0i!
0j!
0l
0q
1r
0w
1|
1+!
0-!
1D!
0E!
1F!
0*!
0,!
0N!
0S!
0\!
0J!
0Q!
0R!
05!
1z
0%!
0&!
1o
1x
1y
0z
1s
1'!
1.!
1/!
1}
16!
0?!
1S!
0K!
0^!
0T!
0X!
0Y!
0U!
0h
0L!
1T!
1X!
0B!
19!
1~
00!
1(!
1u
0}
03
0~
1e
1)!
01!
1d
1:!
0C!
1U!
0_
1Y!
0^
0f
1<
1;
06
05
01
1^
1f
0`
1a
02!
1c
0d
0;
1:
18
07
15
11
0b
09
#600000
1(
0"
1)
0&
1$
1!
1#
0*
0,
1Q
0O
1M
1L
0K
1J
0U
0S
1R
1k!
0l!
0n!
1c!
0d!
1e!
1f!
0h!
1j!
1l
1q
0r
1"!
0#!
13!
08!
1;!
0A!
1E!
0F!
1P!
1V!
04!
0D!
0G!
1N!
1W!
1Z!
1[!
1Q!
1R!
1?!
1I!
0'!
0o
0x
0y
1z
0s
0(!
1B!
0S!
1\!
1^!
0T!
0X!
1C!
0)!
0u
1}
1~
0e
0c
1`
0Y!
0U!
1h
0<
0:
17
13
0^
0f
1d
1;
05
01
#650000
1"
0$
0!
0#
1%
1-
00
1/
1+
1N
0M
0L
1K
0J
0Y
1X
1V
1T
1m!
1o!
1q!
0r!
0c!
1d!
0e!
0f!
1g!
0+!
1-!
03!
18!
0;!
1A!
0E!
1F!
0P!
0V!
0k
0q
1v
1*!
1,!
1<!
0z
1%!
1&!
1o
1x
1y
0W!
1S!
0Z!
0[!
0\!
1J!
0R!
06!
1>!
15!
16!
0J!
0I!
09!
0S!
1[!
1K!
0^!
1\!
1T!
1X!
1z
0%!
0&!
1s
1'!
0}
0~
1(!
1u
0'!
1}
1Y!
1U!
1^!
0h
1L!
0\!
0T!
0X!
0:!
1J!
1R!
0K!
19!
03
1:!
0L!
1S!
0[!
1K!
0a
0U!
0^!
1_
1h
0Y!
1^
1f
1~
0(!
1e
1)!
0d
1<
0;
08
16
15
13
11
1c
0)!
1d
0^
0f
0h
1L!
1\!
1T!
1X!
0_
1a
1;
1:
18
06
05
03
01
1Y!
1U!
1^!
1_
0c
0:
16
1h
1^
1f
13
11
15
#700000
0"
1$
1#
0%
0-
10
0+
1*
1,
1'
1P
0N
1M
1L
0K
1Y
0V
1U
0T
1S
1l!
0m!
1n!
0o!
1r!
0d!
1e!
1f!
0g!
1i!
1w
1{
0|
1+!
0-!
13!
08!
1;!
0A!
1E!
0F!
1k
1q
0*!
0,!
14!
17!
0<!
1G!
0o
0x
0y
0=!
0>!
05!
0z
1%!
1&!
1'!
0}
06!
0?!
1H!
1I!
1z
0s
0u
1}
0J!
0Q!
0R!
0B!
09!
0~
1(!
1)!
0d
0:!
0C!
0S!
1Z!
1[!
0K!
1~
0e
0<
0;
0L!
0\!
0T!
0X!
0`
0a
1d
1c
1;
1:
08
07
0Y!
0U!
0^!
0_
06
0h
0^
0f
03
01
05
#750000
0$
0#
1!
0(
1.
0Q
0M
0L
1J
1W
1p!
1c!
0e!
0f!
0j!
0l
0q
1r
03!
07!
18!
0;!
1A!
1P!
1V!
1$!
0'!
0.!
0/!
1W!
1S!
1\!
1?!
0H!
0I!
16!
1=!
1o
1x
1y
0z
1s
0?!
19!
1J!
1Q!
1R!
1B!
1^!
1T!
1X!
10!
0(!
0)!
11!
1Y!
1U!
1h
1C!
0S!
1K!
1:!
0B!
1u
0}
13
0~
1e
0C!
1a
1L!
0T!
0X!
1`
1^
1f
12!
0c
1<
0:
18
17
15
11
1b
0Y!
0U!
1_
0`
0d
0;
19
07
16
0^
0f
05
01
#800000
1$
0.
1"
1%
1-
00
1+
0*
0,
0'
0)
1&
0P
1O
1N
1M
1K
0Y
0W
1V
0U
1T
0S
0R
0k!
0l!
1m!
0n!
1o!
0p!
0r!
1d!
1f!
1g!
1h!
0i!
0w
0{
1|
0"!
1#!
0+!
1-!
13!
08!
0E!
1F!
0k
0$!
1*!
1,!
04!
1<!
0G!
0N!
0W!
1S!
0Z!
0[!
0\!
1?!
1I!
0o
15!
1z
0%!
0&!
1'!
1.!
1/!
1}
06!
0?!
0s
0J!
0R!
1B!
0^!
1\!
1T!
1X!
1Y!
1U!
1^!
0h
1C!
0S!
1[!
0K!
0u
0B!
09!
1~
00!
1(!
03
1)!
01!
1d
0:!
0C!
0e
0L!
0\!
0T!
0X!
1`
1h
1^
1f
0<
1;
17
15
13
11
0Y!
0U!
0^!
0_
0`
0a
02!
1c
1:
08
07
06
0b
0h
0^
0f
09
05
03
01
#850000
0$
1.
0"
0-
0+
1,
1'
0&
0!
0/
1P
0O
0M
0K
0J
0X
1W
0V
1U
0T
0m!
1n!
0o!
1p!
0q!
0c!
0d!
0f!
0h!
1i!
1w
0|
1"!
0#!
03!
18!
1E!
0F!
0P!
0V!
0v
1$!
0*!
0,!
14!
0<!
1?!
0I!
10!
05!
1S!
0[!
1\!
1J!
1R!
1K!
1^!
1T!
1X!
16!
0?!
0S!
0\!
11!
0J!
1B!
1C!
0K!
12!
0^!
0T!
0X!
0B!
19!
1Y!
1U!
1h
1L!
13
1_
1^
1f
1:!
0C!
0Y!
0U!
0h
1b
0L!
1`
19
17
16
15
03
11
0`
1a
0f
0^
0_
18
07
06
05
01
#900000
1$
1"
1-
1/
1)
1#
1(
1Q
1M
1L
1K
1X
1V
1R
1k!
1o!
1q!
1d!
1e!
1f!
1j!
1l
0r
13!
17!
08!
1;!
0A!
0E!
1F!
1v
1{
1*!
1,!
1N!
1S!
1\!
00!
15!
0z
1%!
1&!
1J!
1?!
1I!
06!
0=!
1o
1s
09!
1B!
1K!
0'!
0.!
0/!
0}
16!
0?!
1H!
0J!
0R!
01!
1^!
1T!
1X!
1Y!
1U!
1h
02!
0S!
1[!
0K!
0Q!
0B!
19!
0~
10!
0(!
1L!
1C!
0:!
1u
13
1e
0a
1`
1_
0)!
11!
0d
1:!
0C!
1Z!
0L!
0\!
0T!
0X!
0b
1^
1f
1<
0;
09
08
17
16
15
11
0Y!
0U!
0^!
12!
0c
0_
0`
1a
0:
18
07
06
1b
0h
0^
0f
19
05
03
01
#950000
0$
0-
0#
0(
1+
0,
0Q
0M
0L
0V
0U
1T
1m!
0n!
0o!
0e!
0f!
0j!
0l
1r
03!
18!
0;!
1A!
0*!
0,!
04!
07!
1<!
00!
1=!
1>!
0o
0s
1?!
0H!
0I!
01!
02!
1J!
1Q!
1R!
1B!
0u
0e
1C!
1S!
0Z!
0[!
1K!
0b
0<
09
1L!
1\!
1T!
1X!
1`
17
1Y!
1U!
1^!
1_
16
1h
1^
1f
13
11
15
