ALU/simulation/qsim/ALU.msim.vcd
$comment
	File created using the following command:
		vcd file ALU.msim.vcd -direction
$end
$date
	Sun May 12 18:59:50 2024
$end
$version
	ModelSim Version 10.5b
$end
$timescale
	1ps
$end

$scope module alu_vhd_vec_tst $end
$var wire 1 ! A [7] $end
$var wire 1 " A [6] $end
$var wire 1 # A [5] $end
$var wire 1 $ A [4] $end
$var wire 1 % A [3] $end
$var wire 1 & A [2] $end
$var wire 1 ' A [1] $end
$var wire 1 ( A [0] $end
$var wire 1 ) B [7] $end
$var wire 1 * B [6] $end
$var wire 1 + B [5] $end
$var wire 1 , B [4] $end
$var wire 1 - B [3] $end
$var wire 1 . B [2] $end
$var wire 1 / B [1] $end
$var wire 1 0 B [0] $end
$var wire 1 1 CarryFlag $end
$var wire 1 2 NegativeFlag $end
$var wire 1 3 Out_ALU [7] $end
$var wire 1 4 Out_ALU [6] $end
$var wire 1 5 Out_ALU [5] $end
$var wire 1 6 Out_ALU [4] $end
$var wire 1 7 Out_ALU [3] $end
$var wire 1 8 Out_ALU [2] $end
$var wire 1 9 Out_ALU [1] $end
$var wire 1 : Out_ALU [0] $end
$var wire 1 ; OverflowFlag $end
$var wire 1 < Sel [3] $end
$var wire 1 = Sel [2] $end
$var wire 1 > Sel [1] $end
$var wire 1 ? Sel [0] $end
$var wire 1 @ ZeroFlag $end

$scope module i1 $end
$var wire 1 A gnd $end
$var wire 1 B vcc $end
$var wire 1 C unknown $end
$var wire 1 D devoe $end
$var wire 1 E devclrn $end
$var wire 1 F devpor $end
$var wire 1 G ww_devoe $end
$var wire 1 H ww_devclrn $end
$var wire 1 I ww_devpor $end
$var wire 1 J ww_A [7] $end
$var wire 1 K ww_A [6] $end
$var wire 1 L ww_A [5] $end
$var wire 1 M ww_A [4] $end
$var wire 1 N ww_A [3] $end
$var wire 1 O ww_A [2] $end
$var wire 1 P ww_A [1] $end
$var wire 1 Q ww_A [0] $end
$var wire 1 R ww_B [7] $end
$var wire 1 S ww_B [6] $end
$var wire 1 T ww_B [5] $end
$var wire 1 U ww_B [4] $end
$var wire 1 V ww_B [3] $end
$var wire 1 W ww_B [2] $end
$var wire 1 X ww_B [1] $end
$var wire 1 Y ww_B [0] $end
$var wire 1 Z ww_Sel [3] $end
$var wire 1 [ ww_Sel [2] $end
$var wire 1 \ ww_Sel [1] $end
$var wire 1 ] ww_Sel [0] $end
$var wire 1 ^ ww_Out_ALU [7] $end
$var wire 1 _ ww_Out_ALU [6] $end
$var wire 1 ` ww_Out_ALU [5] $end
$var wire 1 a ww_Out_ALU [4] $end
$var wire 1 b ww_Out_ALU [3] $end
$var wire 1 c ww_Out_ALU [2] $end
$var wire 1 d ww_Out_ALU [1] $end
$var wire 1 e ww_Out_ALU [0] $end
$var wire 1 f ww_ZeroFlag $end
$var wire 1 g ww_CarryFlag $end
$var wire 1 h ww_OverflowFlag $end
$var wire 1 i ww_NegativeFlag $end
$var wire 1 j \Add0~49\ $end
$var wire 1 k \Add0~47_combout\ $end
$var wire 1 l \Add0~48_combout\ $end
$var wire 1 m \Add0~51_cout0\ $end
$var wire 1 n \Add0~51COUT1_71\ $end
$var wire 1 o \Add0~2_combout\ $end
$var wire 1 p \Mux8~8_combout\ $end
$var wire 1 q \Mux8~9_combout\ $end
$var wire 1 r \Mux8~4_combout\ $end
$var wire 1 s \Mux8~5_combout\ $end
$var wire 1 t \Mux8~6_combout\ $end
$var wire 1 u \Mux8~7_combout\ $end
$var wire 1 v \Mux7~6_combout\ $end
$var wire 1 w \Mux7~7_combout\ $end
$var wire 1 x \Add0~54_combout\ $end
$var wire 1 y \Add0~55_combout\ $end
$var wire 1 z \Add0~4\ $end
$var wire 1 { \Add0~4COUT1_72\ $end
$var wire 1 | \Add0~7_combout\ $end
$var wire 1 } \Mux7~4_combout\ $end
$var wire 1 ~ \Mux7~5_combout\ $end
$var wire 1 !! \Mux6~6_combout\ $end
$var wire 1 "! \Mux6~7_combout\ $end
$var wire 1 #! \Add0~57_combout\ $end
$var wire 1 $! \Add0~56_combout\ $end
$var wire 1 %! \Add0~9\ $end
$var wire 1 &! \Add0~9COUT1_73\ $end
$var wire 1 '! \Add0~12_combout\ $end
$var wire 1 (! \Mux6~4_combout\ $end
$var wire 1 )! \Mux6~5_combout\ $end
$var wire 1 *! \Add0~59_combout\ $end
$var wire 1 +! \Add0~58_combout\ $end
$var wire 1 ,! \Add0~14\ $end
$var wire 1 -! \Add0~14COUT1_74\ $end
$var wire 1 .! \Add0~17_combout\ $end
$var wire 1 /! \Mux5~6_combout\ $end
$var wire 1 0! \Mux5~7_combout\ $end
$var wire 1 1! \Mux5~4_combout\ $end
$var wire 1 2! \Mux5~5_combout\ $end
$var wire 1 3! \Mux4~6_combout\ $end
$var wire 1 4! \Mux4~7_combout\ $end
$var wire 1 5! \Add0~60_combout\ $end
$var wire 1 6! \Add0~61_combout\ $end
$var wire 1 7! \Add0~19\ $end
$var wire 1 8! \Add0~22_combout\ $end
$var wire 1 9! \Mux4~4_combout\ $end
$var wire 1 :! \Mux4~5_combout\ $end
$var wire 1 ;! \Add0~63_combout\ $end
$var wire 1 <! \Add0~62_combout\ $end
$var wire 1 =! \Add0~24\ $end
$var wire 1 >! \Add0~24COUT1_75\ $end
$var wire 1 ?! \Add0~27_combout\ $end
$var wire 1 @! \Mux3~6_combout\ $end
$var wire 1 A! \Mux3~7_combout\ $end
$var wire 1 B! \Mux3~4_combout\ $end
$var wire 1 C! \Mux3~5_combout\ $end
$var wire 1 D! \Add0~65_combout\ $end
$var wire 1 E! \Add0~64_combout\ $end
$var wire 1 F! \Add0~29\ $end
$var wire 1 G! \Add0~29COUT1_76\ $end
$var wire 1 H! \Add0~32_combout\ $end
$var wire 1 I! \Mux2~6_combout\ $end
$var wire 1 J! \Mux2~7_combout\ $end
$var wire 1 K! \Mux2~4_combout\ $end
$var wire 1 L! \Mux2~5_combout\ $end
$var wire 1 M! \Add0~66_combout\ $end
$var wire 1 N! \Add0~67_combout\ $end
$var wire 1 O! \Add0~69_combout\ $end
$var wire 1 P! \Add0~68_combout\ $end
$var wire 1 Q! \Add0~34\ $end
$var wire 1 R! \Add0~34COUT1_77\ $end
$var wire 1 S! \Add0~37_combout\ $end
$var wire 1 T! \Mux1~1_combout\ $end
$var wire 1 U! \Mux1~2_combout\ $end
$var wire 1 V! \Mux1~4_combout\ $end
$var wire 1 W! \Mux1~5_combout\ $end
$var wire 1 X! \Mux1~0_combout\ $end
$var wire 1 Y! \Mux1~3_combout\ $end
$var wire 1 Z! \Equal0~0_combout\ $end
$var wire 1 [! \Equal0~1_combout\ $end
$var wire 1 \! \Equal0~2_combout\ $end
$var wire 1 ]! \Add0~39\ $end
$var wire 1 ^! \Add0~39COUT1_78\ $end
$var wire 1 _! \Add0~42_combout\ $end
$var wire 1 `! \Mux0~0_combout\ $end
$var wire 1 a! \Mux0~1_combout\ $end
$var wire 1 b! \Sel~combout\ [3] $end
$var wire 1 c! \Sel~combout\ [2] $end
$var wire 1 d! \Sel~combout\ [1] $end
$var wire 1 e! \Sel~combout\ [0] $end
$var wire 1 f! \A~combout\ [7] $end
$var wire 1 g! \A~combout\ [6] $end
$var wire 1 h! \A~combout\ [5] $end
$var wire 1 i! \A~combout\ [4] $end
$var wire 1 j! \A~combout\ [3] $end
$var wire 1 k! \A~combout\ [2] $end
$var wire 1 l! \A~combout\ [1] $end
$var wire 1 m! \A~combout\ [0] $end
$var wire 1 n! \B~combout\ [7] $end
$var wire 1 o! \B~combout\ [6] $end
$var wire 1 p! \B~combout\ [5] $end
$var wire 1 q! \B~combout\ [4] $end
$var wire 1 r! \B~combout\ [3] $end
$var wire 1 s! \B~combout\ [2] $end
$var wire 1 t! \B~combout\ [1] $end
$var wire 1 u! \B~combout\ [0] $end
$upscope $end
$upscope $end
$enddefinitions $end
#0
$dumpvars
01
02
0;
0@
0A
1B
xC
1D
1E
1F
1G
1H
1I
0f
0g
0h
0i
1j
1k
1l
0m
0n
0o
1p
1q
1r
0s
0t
0u
0v
0w
0x
0y
0z
0{
1|
1}
1~
1!!
1"!
0#!
1$!
0%!
0&!
1'!
1(!
1)!
0*!
0+!
1,!
1-!
0.!
0/!
00!
01!
02!
03!
04!
15!
06!
07!
18!
19!
1:!
0;!
0<!
1=!
0>!
0?!
0@!
0A!
0B!
0C!
0D!
0E!
0F!
0G!
0H!
0I!
0J!
0K!
0L!
1M!
0N!
0O!
0P!
1Q!
1R!
0S!
1T!
1U!
1V!
1W!
0X!
0Y!
0Z!
0[!
0\!
0]!
0^!
0_!
0`!
0a!
1!
0"
1#
0$
0%
1&
1'
1(
0)
0*
0+
1,
0-
1.
0/
10
0<
1=
1>
0?
03
04
05
16
07
18
19
0:
1J
0K
1L
0M
0N
1O
1P
1Q
0R
0S
0T
1U
0V
1W
0X
1Y
0Z
1[
1\
0]
0^
0_
0`
1a
0b
1c
1d
0e
0b!
1c!
1d!
0e!
1f!
0g!
1h!
0i!
0j!
1k!
1l!
1m!
0n!
0o!
0p!
1q!
0r!
1s!
0t!
1u!
$end
#50000
0!
1$
1%
0'
0(
1)
1*
1+
0,
0.
1/
00
0=
0>
1?
0Q
0P
1N
1M
0J
0Y
1X
0W
0U
1T
1S
1R
1]
0\
0[
0c!
0d!
1e!
1n!
1o!
1p!
0q!
0s!
1t!
0u!
0f!
1i!
1j!
0l!
0m!
1P!
0p
1v
1/!
13!
1@!
1I!
1w
0"!
1J!
0T!
0k
1m
1n
1#!
1*!
1+!
16!
1;!
0M!
1O!
0V!
0P!
1?!
1G!
08!
0=!
17!
0'!
0,!
0-!
1S!
1_!
1a!
1T!
1X!
1.!
0(!
18!
0?!
1F!
09!
1H!
1B!
0S!
0_!
0a!
0T!
0X!
1C!
1K!
0:!
0B!
19!
0)!
11!
1Y!
1g
11
1^
1i
12!
0c
1:!
0C!
0a
1L!
1`
0Y!
0g
08
06
15
13
12
01
1_
0`
1a
1b
0i
0^
17
16
05
14
03
02
#100000
1!
0%
1'
0*
0+
1,
0/
10
1>
1"
0&
1-
1P
0O
0N
1K
1J
1Y
0X
1V
1U
0T
0S
1\
1d!
0o!
0p!
1q!
1r!
0t!
1u!
1f!
1g!
0j!
0k!
1l!
1y
0!!
0#!
0*!
1D!
1N!
1V!
1p
0l
0q
0r
1x
1"!
0+!
10!
14!
05!
1<!
1A!
1E!
0U!
1X!
1`!
1Y!
1?!
08!
1=!
1(!
1B!
1o
1z
1{
1q
1S!
1_!
0Q!
0R!
07!
1'!
1,!
1-!
0"!
1%!
1&!
0'!
0,!
0-!
0.!
0(!
18!
0S!
1]!
1^!
0|
1s
1C!
1)!
0?!
1^
1i
13
12
1c
1`
1u
0_!
0)!
1.!
18
15
1e
0c
1:
08
#150000
1%
0'
0,
0"
0-
1(
0)
0?
1<
1Q
0P
1N
0K
0V
0U
0R
0]
1Z
1b!
0e!
0n!
0q!
0r!
0g!
1j!
0l!
1m!
1T!
1l
0m
0n
0x
0$!
0<!
0E!
0O!
0W!
1k
0p
1!!
1#!
1*!
0Y!
0^
0i
0.!
17!
1"!
0q
0X!
0H!
1?!
0F!
1|
0%!
0&!
0o
0z
0{
1U!
03
02
0|
1%!
1&!
1'!
1,!
1-!
1Y!
0s
1(!
08!
0?!
1Q!
0]!
1)!
0u
1^
1i
1.!
07!
0'!
0,!
0-!
13
12
0.!
17!
18!
1?!
1H!
1S!
0e
1c
1_!
0:
18
08!
0?!
0H!
0S!
0_!
#200000
1'
1,
1"
1-
0!
1/
00
0>
0$
1.
1P
0M
1K
0J
0Y
1X
1W
1V
1U
0\
0d!
1q!
1r!
1s!
1t!
0u!
0f!
1g!
0i!
1l!
0V!
1p
0v
0!!
0/!
03!
0l
1r
0w
1x
1$!
1+!
00!
15!
0A!
0J!
0T!
0`!
0U!
18!
0=!
1.!
1'!
1|
0}
0(!
01!
09!
0B!
0K!
1o
1z
1{
0|
1s
0L!
0C!
0:!
02!
0)!
0~
1}
1(!
11!
1F!
19!
0Y!
0^
0i
1:!
0Q!
12!
1)!
1~
0d
1Z!
0c
0b
0a
0`
1[!
0_
1u
0}
09
08
07
06
05
04
03
02
0~
1e
1d
0Z!
1c
1b
1]!
0[!
1a
1:
19
18
17
16
0d
09
#250000
0"
1>
1*
1+
1=
0#
0L
0K
1\
1[
1T
1S
1o!
1p!
1c!
1d!
0g!
0h!
1q
0"!
04!
1A!
1J!
1T!
0r
1M!
1`!
1<!
0@!
1E!
0I!
0J!
1H!
0A!
1?!
01!
1U!
09!
0(!
0s
0u
0)!
0:!
02!
0b
1[!
0a
1Z!
0c
0e
0:
08
07
06
1\!
1f
1@
#300000
1"
0>
0=
0-
1!
0/
0.
0%
0N
1K
1J
0\
0[
0X
0W
0V
0r!
0s!
0t!
0c!
0d!
1f!
1g!
0j!
0q
1"!
10!
14!
1A!
0T!
1r
1s
0M!
1V!
1Y!
0`!
1v
0x
1!!
0$!
0+!
1/!
0.!
0'!
1|
0%!
0&!
0\!
1^
1i
1u
1K!
0U!
1B!
19!
11!
1(!
13
12
1)!
12!
1:!
1C!
0Y!
1L!
1e
0f
1'!
1,!
1-!
1}
0(!
01!
1:
0@
02!
0)!
1~
1.!
07!
1(!
1_
0^
0i
1`
1a
0[!
1b
0Z!
1c
18
17
16
15
14
03
02
1)!
08!
11!
1d
0c
0b
19
08
07
12!
09!
1c
18
0:!
1b
17
0a
06
#350000
1>
1/
1.
1%
0*
0+
1#
0(
1?
1]
1\
1X
1W
0T
0S
0Q
1N
1L
1h!
1j!
0m!
0o!
0p!
1s!
1t!
1d!
1e!
1m
1n
1W!
1l
0r
1w
1+!
04!
05!
1O!
1T!
1`!
0v
0!!
0p
1q
0/!
0A!
00!
0q
0"!
0w
18!
1=!
0.!
17!
0B!
0K!
1X!
0z
0{
0|
1%!
1&!
0L!
0C!
08!
0}
0(!
0s
01!
02!
0u
0)!
0~
0`
0_
0'!
0,!
0-!
05
04
1.!
0d
1Z!
0c
0e
1[!
0b
0:
09
08
07
1\!
1f
1@
#400000
0>
0%
1*
1+
1(
0?
0"
1=
10
1$
1)
0<
0]
0\
1[
0Z
1Q
0N
1M
0K
1Y
1T
1S
1R
1n!
1o!
1p!
1u!
0g!
1i!
0j!
1m!
0b!
1c!
0d!
0e!
1"!
1U!
0m
0n
0+!
1t
1v
0y
0#!
0;!
1Y!
0*!
10!
13!
06!
0D!
1J!
1p
0<!
1@!
0E!
0T!
0W!
0X!
0U!
1Q!
1R!
18!
1>!
0\!
1^
1i
0F!
0G!
1'!
1,!
1-!
1|
0%!
0&!
1)!
1L!
07!
0o
13
12
08!
0[!
1_
0Z!
1c
0'!
0.!
0H!
0f
0?!
1S!
0]!
0^!
0Y!
18
14
0@
0^
0i
1_!
1T!
03
02
1U!
#450000
0+
1?
0=
00
1<
0#
0!
1&
0Y
0T
1]
0[
1Z
1O
0L
0J
0f!
0h!
1k!
1b!
0c!
1e!
0p!
0u!
1u
1m
1n
1(!
1+!
11!
1<!
1K!
1W!
1X!
0p
0t
0v
1y
1*!
03!
16!
1D!
1P!
1Y!
0"!
1#!
0)!
1;!
0@!
1A!
0V!
1B!
1Z!
0c
1'!
0(!
1^
1i
0S!
1]!
1^!
0_!
1H!
18!
0>!
0|
1%!
1&!
0u
1F!
1G!
12!
17!
1)!
1o
1e
1:
08
13
12
0Z!
08!
1b
0H!
0Q!
0R!
0e
0'!
0,!
0-!
1?!
1_!
0T!
0X!
0)!
1c
1C!
0:
18
17
1`
1Z!
0c
1.!
1S!
08
15
1T!
1X!
#500000
10
1#
1>
0(
0/
0.
1-
1Y
0X
0W
1V
0Q
1L
1\
1d!
1h!
0m!
1r!
0s!
0t!
1u!
0l
1x
1$!
0+!
00!
0A!
0J!
0T!
0U!
0Y!
0K!
0B!
01!
0.!
1'!
1|
0o
02!
0C!
0L!
0^
0i
03
02
0_
0`
1[!
0b
07
05
04
1\!
1f
1@
#550000
0-
0<
0&
1%
0)
0V
0R
0Z
0O
1N
1j!
0k!
0b!
0n!
0r!
1+!
1T!
0W!
0k
1p
1v
13!
1@!
0D!
1I!
0N!
1Y!
0#!
1/!
10!
0'!
0\!
1^
1i
0S!
0_!
1J!
1H!
1Q!
1R!
1A!
14!
1w
1q
1o
1z
1{
0X!
1.!
13
12
0Y!
0|
1s
1}
19!
1B!
1S!
0]!
0^!
1K!
0f
11!
0@
12!
1L!
1_!
1C!
1:!
1~
1u
1\!
0^
0i
03
02
1f
0\!
1e
0Z!
1d
1a
1`
1_
0[!
1b
1@
1:
19
17
16
15
14
0f
0@
#600000
1<
1&
0%
1)
0#
1(
1=
0*
1"
0'
0,
1[
1Z
1Q
0P
1O
0N
0L
1K
0U
0S
1R
1n!
0o!
0q!
1g!
0h!
0j!
1k!
0l!
1m!
1b!
1c!
1l
0m
0n
0s
0}
01!
09!
0B!
0K!
1M!
1V!
1X!
1N!
1k
0p
0v
1#!
0/!
0@!
1D!
03!
15!
1E!
0I!
0O!
0T!
0J!
18!
0=!
04!
0Q!
0R!
0A!
00!
1'!
0w
0q
0S!
1]!
1^!
0_!
1W!
0L!
0C!
0:!
02!
0~
0u
0o
0z
0{
1|
0e
1Z!
0d
0b
0a
0`
1[!
0_
1_!
0V!
0X!
1S!
0:
09
07
06
05
04
1V!
1X!
0W!
1\!
1f
1W!
1@
#650000
0<
1%
1#
0=
0"
1'
1-
00
0>
1/
1+
0\
0[
0Z
1P
1N
1L
0K
0Y
1X
1V
1T
1p!
1r!
1t!
0u!
0g!
1h!
1j!
1l!
0b!
0c!
0d!
1T!
1U!
1m
1n
0M!
1O!
0V!
1r
1!!
13!
0N!
1Y!
0`!
0D!
1J!
1p
1v
0x
0+!
1/!
0<!
1@!
0?!
0.!
0|
0H!
1a!
0\!
1^
1i
0S!
0_!
1}
1(!
11!
19!
1B!
1K!
0P!
1o
13
12
1s
1S!
0]!
0^!
1_!
1L!
1C!
1:!
12!
1)!
1~
0a!
0T!
0X!
0f
1g
0K!
0}
01!
0B!
0@
11
0C!
02!
0~
0L!
0Y!
0g
1d
0Z!
1c
1b
1a
1`
0[!
1_
1a!
0_!
1T!
1X!
1u
01
19
18
17
16
15
14
1e
1Y!
0a!
1g
0^
0i
0_
0d
0b
0`
1:
09
07
05
04
03
11
02
0g
1^
1i
01
13
12
#700000
1<
1=
1"
0-
10
1>
0+
0&
1*
1,
0$
1\
1[
1Z
0O
0M
1K
1Y
0V
1U
0T
1S
1o!
0p!
1q!
0r!
1u!
1g!
0i!
0k!
1b!
1c!
1d!
1q
1w
10!
1A!
0T!
0U!
0m
0n
1x
1M!
0O!
1V!
0W!
0r
0v
1N!
1P!
0Y!
1`!
0!!
1"!
14!
1D!
0J!
0p
1+!
0/!
03!
1<!
0@!
0A!
1?!
04!
00!
1.!
0q
1H!
0"!
0^
0i
1]!
1^!
0w
0(!
09!
1W!
1|
0o
0s
03
02
0u
0:!
0)!
1_!
1Z!
0c
1[!
0a
0e
0:
08
06
1\!
1f
1@
#750000
0<
0=
1$
0%
0#
0(
1.
1!
0[
0Z
0Q
0N
1M
0L
1J
1W
1s!
1f!
0h!
1i!
0j!
0m!
0b!
0c!
0l
1m
1n
0x
05!
0E!
0M!
1O!
1v
0#!
1I!
1Y!
0k
1p
0*!
13!
0;!
1!!
0$!
1"!
0?!
14!
0.!
1q
0\!
1^
1i
1J!
1,!
1-!
1w
0P!
0H!
08!
1=!
0|
1o
1z
1{
13
12
1|
0%!
0&!
0F!
0S!
0_!
1}
1.!
07!
1K!
0f
1s
19!
1(!
0@
1)!
1:!
1u
1L!
18!
1?!
1~
1H!
1Q!
0'!
1S!
0]!
1d
1_
1e
0[!
1a
0Z!
1c
1:
19
18
16
14
1_!
#800000
1=
1#
1(
0.
1-
00
1+
1&
0*
0,
0'
0)
0?
0]
1[
1Q
0P
1O
1L
0Y
0W
1V
0U
1T
0S
0R
0n!
0o!
1p!
0q!
1r!
0s!
0u!
1h!
1k!
0l!
1m!
1c!
0e!
0m
0n
1r
0s
1x
0}
0(!
06!
09!
0D!
0K!
1M!
0`!
1k
0v
0y
0p
0!!
03!
1@!
0I!
0O!
1P!
1T!
1U!
0S!
1]!
0_!
0P!
0J!
1A!
04!
0"!
0q
0w
1a!
0N!
0L!
0H!
1R!
0:!
08!
1>!
0)!
0~
0u
1s
1}
11!
19!
1B!
1K!
1L!
1C!
1:!
12!
1~
1u
0e
0d
1Z!
0c
0G!
0a
1[!
0_
1g
09!
0K!
0]!
0^!
0a!
1_!
0X!
0:
09
08
06
04
11
0Y!
1a!
0_!
0L!
0:!
0g
1e
0Z!
1d
1b
1a
1`
0[!
1_
01
1:
19
17
16
15
14
0a
0_
0a!
1g
0^
0i
06
04
03
11
02
0g
01
#850000
0#
1.
0-
0+
1,
1'
0$
1%
0!
0"
0/
1P
1N
0M
0L
0K
0J
0X
1W
0V
1U
0T
0p!
1q!
0r!
1s!
0t!
0f!
0g!
0h!
0i!
1j!
1l!
0V!
0x
1!!
1$!
0+!
15!
0<!
0@!
0A!
0?!
18!
0>!
0.!
1'!
1"!
0|
0W!
0}
1(!
01!
19!
0B!
0C!
1:!
02!
1)!
0~
0d
1c
0b
1a
0`
09
18
07
16
05
#900000
1#
1-
1$
0%
1"
1/
0&
1)
1?
1<
0O
0N
1M
1L
1K
1X
1V
1R
1]
1Z
1b!
1e!
1n!
1r!
1t!
1g!
1h!
1i!
0j!
0k!
0T!
1l
1x
1+!
1<!
1E!
0U!
0r
1y
0!!
1#!
1*!
16!
1;!
1D!
1N!
1P!
1`!
1]!
1^!
08!
0=!
0'!
0,!
0-!
0"!
0s
0(!
09!
0Q!
0R!
1F!
1G!
17!
1%!
1&!
0o
0z
0{
1|
1'!
18!
1H!
1S!
0:!
0)!
0u
1.!
1?!
1_!
0e
1Z!
0c
1[!
0a
1V!
1X!
0:
08
06
1W!
1\!
1f
1@
#950000
0#
0-
0$
0"
1&
0<
1+
0,
0=
0(
0>
0Q
1O
0M
0L
0K
0V
0U
1T
0\
0[
0Z
0b!
0c!
0d!
1p!
0q!
0r!
0g!
0h!
0i!
1k!
0m!
1q
10!
14!
1A!
1J!
1T!
1U!
1m
1n
0x
0$!
0<!
0M!
1O!
0V!
0k
1r
1v
1!!
0*!
06!
0;!
1@!
0D!
0N!
1Y!
0`!
1a!
0\!
1^
1i
0S!
0_!
0H!
08!
1=!
0.!
1}
1(!
0P!
0F!
0G!
0'!
0|
1K!
1B!
19!
11!
13
12
12!
1:!
1C!
1L!
0}
0(!
1H!
1Q!
1R!
1S!
0]!
0^!
1_!
1)!
1~
01!
09!
0K!
0a!
0T!
0X!
0f
1g
0@
11
0Y!
0g
0L!
0:!
02!
1d
0Z!
1c
1a!
0_!
1T!
1X!
0S!
1K!
0)!
0~
1_
1`
1a
0[!
1b
01
19
18
17
16
15
14
1Z!
1L!
0T!
0X!
1Y!
0a!
0c
0d
0b
0a
0_
1g
0^
0i
09
08
07
06
04
03
11
02
0g
1^
1i
0Y!
1_
01
14
13
12
0i
0^
02
03
